\relax 
\citation{berlinemo}
\citation{semaine}
\citation{fauaibo}
\@writefile{toc}{\contentsline {section}{\numberline {I}Introduction}{1}}
\newlabel{introduction}{{I}{1}}
\@writefile{toc}{\contentsline {section}{\numberline {II}Dataset}{1}}
\newlabel{data}{{II}{1}}
\@writefile{toc}{\contentsline {subsection}{\numberline {\unhbox \voidb@x \hbox {II-A}}Emotion Data}{1}}
\citation{russell}
\@writefile{lof}{\contentsline {figure}{\numberline {1}{\ignorespaces Circumplex model \cite  {russell} mapping valence \& arousal to emotions}}{2}}
\newlabel{fig:valencearousal}{{1}{2}}
\@writefile{toc}{\contentsline {subsection}{\numberline {\unhbox \voidb@x \hbox {II-B}}Noise}{2}}
\@writefile{toc}{\contentsline {subsection}{\numberline {\unhbox \voidb@x \hbox {II-C}}Channels}{2}}
\@writefile{toc}{\contentsline {section}{\numberline {III}Preprocessing}{2}}
\newlabel{ap}{{III}{2}}
\@writefile{toc}{\contentsline {subsection}{\numberline {\unhbox \voidb@x \hbox {III-A}}Audio preparation}{2}}
\@writefile{toc}{\contentsline {subsection}{\numberline {\unhbox \voidb@x \hbox {III-B}}Windowing}{2}}
\@writefile{toc}{\contentsline {subsection}{\numberline {\unhbox \voidb@x \hbox {III-C}}Balancing of Emotions}{2}}
\@writefile{toc}{\contentsline {section}{\numberline {IV}Channel separation update}{2}}
\newlabel{update}{{IV}{2}}
\@writefile{lot}{\contentsline {table}{\numberline {I}{\ignorespaces Accuracies in percentage, averaged over 4-fold cross validation. Recall values are left out, since they were always equal to the accuracies.}}{2}}
\newlabel{channel_split}{{I}{2}}
\@writefile{toc}{\contentsline {section}{\numberline {V}Two Stage Classification Approach}{2}}
\newlabel{classify}{{V}{2}}
\@writefile{lol}{\contentsline {lstlisting}{samplecode.py}{3}}
\@writefile{lol}{\contentsline {lstlisting}{samplecode2.py}{3}}
\@writefile{toc}{\contentsline {section}{\numberline {VI}Results}{3}}
\newlabel{results}{{VI}{3}}
\@writefile{toc}{\contentsline {subsection}{\numberline {\unhbox \voidb@x \hbox {VI-A}}Speaker dependent classifier}{3}}
\@writefile{lot}{\contentsline {table}{\numberline {II}{\ignorespaces Accuracies, averaged over 4-fold cross validation, compared with accuracy of uniform random guessing, for GMM with 64, 10 \& 8 Gaussians. Recall values are left out, since they were always equal to the accuracies.}}{3}}
\newlabel{acc_speaker_dep}{{II}{3}}
\@writefile{toc}{\contentsline {subsection}{\numberline {\unhbox \voidb@x \hbox {VI-B}}Speaker independent classifier}{3}}
\@writefile{lot}{\contentsline {table}{\numberline {III}{\ignorespaces Same as in Table II\hbox {}, but speaker invariant. Only 10 Gaussians were used for GMMs, since this is the most promising configuration as seen in Table II\hbox {}.}}{3}}
\newlabel{acc_speaker_inv}{{III}{3}}
\bibstyle{plain}
\bibdata{bib/ref}
\bibcite{berlinemo}{1}
\bibcite{semaine}{2}
\bibcite{russell}{3}
\bibcite{fauaibo}{4}
\@writefile{toc}{\contentsline {section}{\numberline {VII}Conclusion}{4}}
\newlabel{conclusion}{{VII}{4}}
\@writefile{toc}{\contentsline {section}{References}{4}}
