\relax 
\citation{buckeye}
\citation{timit}
\@writefile{toc}{\contentsline {section}{\numberline {I}Introduction}{1}}
\newlabel{introduction}{{I}{1}}
\@writefile{toc}{\contentsline {section}{\numberline {II}Dataset}{1}}
\newlabel{data}{{II}{1}}
\@writefile{toc}{\contentsline {subsection}{\numberline {\unhbox \voidb@x \hbox {II-A}}UBM}{1}}
\@writefile{toc}{\contentsline {subsection}{\numberline {\unhbox \voidb@x \hbox {II-B}}Speaker Data}{1}}
\@writefile{toc}{\contentsline {subsection}{\numberline {\unhbox \voidb@x \hbox {II-C}}Noise}{1}}
\@writefile{toc}{\contentsline {subsection}{\numberline {\unhbox \voidb@x \hbox {II-D}}Channels}{1}}
\@writefile{toc}{\contentsline {section}{\numberline {III}Preprocessing}{1}}
\newlabel{ap}{{III}{1}}
\@writefile{toc}{\contentsline {subsection}{\numberline {\unhbox \voidb@x \hbox {III-A}}Audio preparation}{1}}
\@writefile{toc}{\contentsline {subsection}{\numberline {\unhbox \voidb@x \hbox {III-B}}Cross validation}{1}}
\@writefile{toc}{\contentsline {subsection}{\numberline {\unhbox \voidb@x \hbox {III-C}}Windowing}{2}}
\@writefile{toc}{\contentsline {section}{\numberline {IV}Classification algorithms}{2}}
\newlabel{classify}{{IV}{2}}
\@writefile{toc}{\contentsline {subsection}{\numberline {\unhbox \voidb@x \hbox {IV-A}}Naive approach}{2}}
\@writefile{toc}{\contentsline {subsection}{\numberline {\unhbox \voidb@x \hbox {IV-B}}Universal Background Model}{2}}
\@writefile{toc}{\contentsline {subsection}{\numberline {\unhbox \voidb@x \hbox {IV-C}}GMM speaker detection with MAP adaption}{2}}
\@writefile{toc}{\contentsline {subsection}{\numberline {\unhbox \voidb@x \hbox {IV-D}}iVector based speaker detection}{2}}
\@writefile{toc}{\contentsline {section}{\numberline {V}Results}{2}}
\newlabel{discussionofresults}{{V}{2}}
\@writefile{toc}{\contentsline {subsection}{\numberline {\unhbox \voidb@x \hbox {V-A}}Problems with implementation}{2}}
\@writefile{toc}{\contentsline {subsection}{\numberline {\unhbox \voidb@x \hbox {V-B}}Naive approach}{2}}
\@writefile{lot}{\contentsline {table}{\numberline {I}{\ignorespaces Results of simple classification}}{2}}
\@writefile{toc}{\contentsline {subsection}{\numberline {\unhbox \voidb@x \hbox {V-C}}GMM speaker detection with MAP adaption}{2}}
\@writefile{toc}{\contentsline {subsection}{\numberline {\unhbox \voidb@x \hbox {V-D}}iVector based speaker detection}{2}}
\bibstyle{plain}
\bibdata{Bib/referencesbib}
\@writefile{lot}{\contentsline {table}{\numberline {II}{\ignorespaces Results of original VAD speaker detection}}{3}}
\newlabel{table:orig}{{II}{3}}
\@writefile{lot}{\contentsline {table}{\numberline {III}{\ignorespaces Results of trained VAD speaker detection}}{3}}
\newlabel{table:trained}{{III}{3}}
\@writefile{toc}{\contentsline {section}{\numberline {VI}Conclusion}{3}}
\newlabel{conclusion}{{VI}{3}}
