\relax 
\citation{buckeye}
\citation{timit}
\@writefile{toc}{\contentsline {section}{\numberline {I}Introduction}{1}}
\newlabel{introduction}{{I}{1}}
\@writefile{toc}{\contentsline {section}{\numberline {II}Dataset}{1}}
\newlabel{data}{{II}{1}}
\@writefile{toc}{\contentsline {subsection}{\numberline {\unhbox \voidb@x \hbox {II-A}}Sound}{1}}
\@writefile{toc}{\contentsline {subsection}{\numberline {\unhbox \voidb@x \hbox {II-B}}Noise}{1}}
\@writefile{toc}{\contentsline {subsection}{\numberline {\unhbox \voidb@x \hbox {II-C}}Channels}{1}}
\@writefile{toc}{\contentsline {section}{\numberline {III}Audio processing}{1}}
\newlabel{ap}{{III}{1}}
\@writefile{toc}{\contentsline {subsection}{\numberline {\unhbox \voidb@x \hbox {III-A}}Preparation}{1}}
\@writefile{toc}{\contentsline {subsection}{\numberline {\unhbox \voidb@x \hbox {III-B}}Mixing}{1}}
\@writefile{toc}{\contentsline {subsection}{\numberline {\unhbox \voidb@x \hbox {III-C}}Convolution}{1}}
\@writefile{toc}{\contentsline {subsection}{\numberline {\unhbox \voidb@x \hbox {III-D}}Data extraction}{1}}
\citation{balance}
\bibstyle{plain}
\bibdata{Bib/referencesbib}
\bibcite{timit}{1}
\bibcite{balance}{2}
\bibcite{buckeye}{3}
\@writefile{toc}{\contentsline {section}{\numberline {IV}Classification algorithms}{2}}
\newlabel{classify}{{IV}{2}}
\@writefile{toc}{\contentsline {subsection}{\numberline {\unhbox \voidb@x \hbox {IV-A}}KNN}{2}}
\@writefile{toc}{\contentsline {subsection}{\numberline {\unhbox \voidb@x \hbox {IV-B}}Random forests}{2}}
\@writefile{toc}{\contentsline {subsection}{\numberline {\unhbox \voidb@x \hbox {IV-C}}Naive bayes}{2}}
\@writefile{toc}{\contentsline {subsection}{\numberline {\unhbox \voidb@x \hbox {IV-D}}Adaboost}{2}}
\@writefile{toc}{\contentsline {section}{\numberline {V}Results}{2}}
\newlabel{discussionofresults}{{V}{2}}
\@writefile{lot}{\contentsline {table}{\numberline {I}{\ignorespaces Results of VAD classification}}{2}}
\newlabel{table:VADres}{{I}{2}}
\@writefile{toc}{\contentsline {section}{\numberline {VI}Conclusion}{2}}
\newlabel{conclusion}{{VI}{2}}
\@writefile{toc}{\contentsline {section}{References}{2}}
