\relax 
\citation{berlinemo}
\citation{semaine}
\citation{fauaibo}
\citation{russell}
\citation{buckeye}
\citation{timit}
\@writefile{toc}{\contentsline {section}{\numberline {I}Introduction}{1}}
\newlabel{introduction}{{I}{1}}
\@writefile{toc}{\contentsline {section}{\numberline {II}Dataset}{1}}
\newlabel{data}{{II}{1}}
\@writefile{toc}{\contentsline {subsection}{\numberline {\unhbox \voidb@x \hbox {II-A}}Emotion Data}{1}}
\@writefile{lof}{\contentsline {figure}{\numberline {1}{\ignorespaces Circumplex model \cite  {russell} mapping valence \& arousal to emotions}}{1}}
\newlabel{fig:valencearousal}{{1}{1}}
\@writefile{toc}{\contentsline {subsection}{\numberline {\unhbox \voidb@x \hbox {II-B}}UBM}{1}}
\@writefile{toc}{\contentsline {subsection}{\numberline {\unhbox \voidb@x \hbox {II-C}}Noise}{2}}
\@writefile{toc}{\contentsline {subsection}{\numberline {\unhbox \voidb@x \hbox {II-D}}Channels}{2}}
\@writefile{toc}{\contentsline {section}{\numberline {III}Preprocessing}{2}}
\newlabel{ap}{{III}{2}}
\@writefile{toc}{\contentsline {subsection}{\numberline {\unhbox \voidb@x \hbox {III-A}}Audio preparation}{2}}
\@writefile{toc}{\contentsline {subsection}{\numberline {\unhbox \voidb@x \hbox {III-B}}Cross validation}{2}}
\@writefile{toc}{\contentsline {subsection}{\numberline {\unhbox \voidb@x \hbox {III-C}}Windowing}{2}}
\@writefile{toc}{\contentsline {section}{\numberline {IV}Classification algorithms}{2}}
\newlabel{classify}{{IV}{2}}
\@writefile{toc}{\contentsline {subsection}{\numberline {\unhbox \voidb@x \hbox {IV-A}}Universal Background Model}{2}}
\@writefile{toc}{\contentsline {subsection}{\numberline {\unhbox \voidb@x \hbox {IV-B}}GMM emotion detection with MAP adaption}{2}}
\@writefile{toc}{\contentsline {subsection}{\numberline {\unhbox \voidb@x \hbox {IV-C}}iVector based emotion detection}{2}}
\citation{anchor}
\@writefile{toc}{\contentsline {subsection}{\numberline {\unhbox \voidb@x \hbox {IV-D}}iVector score normalisation}{3}}
\@writefile{toc}{\contentsline {subsection}{\numberline {\unhbox \voidb@x \hbox {IV-E}}Anchor models}{3}}
\@writefile{toc}{\contentsline {section}{\numberline {V}Results}{3}}
\newlabel{results}{{V}{3}}
\@writefile{toc}{\contentsline {subsection}{\numberline {\unhbox \voidb@x \hbox {V-A}}Comparison of UBMs}{3}}
\@writefile{lot}{\contentsline {table}{\numberline {I}{\ignorespaces Accuracies (ACC) and unweighted average recalls, averaged over all data, i.e. Berlin-EMO, FAU and Semaine}}{3}}
\newlabel{ubm_comparison}{{I}{3}}
\@writefile{toc}{\contentsline {subsection}{\numberline {\unhbox \voidb@x \hbox {V-B}}Comparison of Emotional Corpora}{3}}
\@writefile{lot}{\contentsline {table}{\numberline {II}{\ignorespaces Average accuracies regarding emotional datasets; average is built over all methods.}}{3}}
\newlabel{emodata_avg_comparison}{{II}{3}}
\@writefile{lot}{\contentsline {table}{\numberline {III}{\ignorespaces Best methods and their accuracies \& recall for each dataset}}{3}}
\newlabel{emodata_best_comparison}{{III}{3}}
\bibstyle{plain}
\bibdata{bib/ref}
\bibcite{anchor}{1}
\bibcite{berlinemo}{2}
\bibcite{timit}{3}
\bibcite{semaine}{4}
\bibcite{buckeye}{5}
\bibcite{russell}{6}
\bibcite{fauaibo}{7}
\@writefile{toc}{\contentsline {subsection}{\numberline {\unhbox \voidb@x \hbox {V-C}}Comparison of Methods}{4}}
\@writefile{lot}{\contentsline {table}{\numberline {IV}{\ignorespaces Average accuracies regarding classification methods; average is built over all emotional corpora \& UBMs.}}{4}}
\newlabel{methods_comparison}{{IV}{4}}
\@writefile{toc}{\contentsline {subsection}{\numberline {\unhbox \voidb@x \hbox {V-D}}Remarks regarding Methods}{4}}
\@writefile{toc}{\contentsline {subsection}{\numberline {\unhbox \voidb@x \hbox {V-E}}Remarks regarding Voice Activity Detection}{4}}
\@writefile{toc}{\contentsline {subsection}{\numberline {\unhbox \voidb@x \hbox {V-F}}A Glance on Confusion Matrices}{4}}
\@writefile{toc}{\contentsline {section}{\numberline {VI}Conclusion}{4}}
\newlabel{conclusion}{{VI}{4}}
\@writefile{toc}{\contentsline {section}{References}{4}}
